[
  {
    "id": 1,
    "name": "Alex",
    "score": 10
  },
  {
    "id": 2,
    "name": "Max",
    "score": 5
  },
  {
    "id": 3,
    "name": "Greg",
    "score": 7
  },
  {
    "id": 4,
    "name": "Andrew",
    "score": 7
  }
]
